{
  "name": "Grid from imgs generator",
  "techs": "nuxt",
  "description": "A simple online tool that allows users to upload imgs files & generate a grid from them. They can choose the output format (PNG/JPG/WEBP), the imgs radius, the spacing...",
  "date": "September 2022",
  "context": "Personal side projet",
  "url": "https://img-grid-generator.com/",
  "repo": "https://github.com/YsarocK/img-grid-generator",
  "imgs": "main.webp"
}
