<svg width="19" height="23" viewBox="0 0 19 23" fill="none" xmlns="http://www.w3.org/2000/svg">
<g style="mix-blend-mode:luminosity">
<path d="M2.97888 9.63179C2.33652 9.9343 0.633519 11.2974 0.304869 11.7008C-0.0237798 12.1041 -0.135819 11.473 0.217105 10.4273C0.495337 9.58137 1.20119 8.43484 2.38694 7.45076C3.07971 6.89056 4.60719 6.06333 5.53898 5.58343C7.09757 4.90375 8.70876 4.3517 10.3567 3.93272C10.5434 3.8823 10.1307 4.24643 10.0672 4.44996C9.73299 5.41537 3.18802 9.52349 3.18802 9.52349L2.97888 9.63179Z" fill="black"/>
<path d="M12.1923 21.198C12.3062 21.8777 12.2053 21.9281 11.4995 22.0178C11.2521 22.0583 10.9991 22.0477 10.756 21.9867C10.5129 21.9256 10.2848 21.8155 10.0859 21.663C9.89919 21.4874 9.85998 21.1028 10.0486 20.7424C10.1625 20.5164 10.2764 20.4399 10.3399 20.1635C10.3698 20.0123 10.4247 19.8672 10.5023 19.734C10.5528 19.6463 10.5658 19.5473 10.5789 18.9404C10.592 18.3335 10.5789 17.1608 10.6424 16.6697C10.7059 16.1786 12.8832 16.8957 12.8832 16.8957C12.8832 16.8957 12.3659 18.1823 12.2277 18.4979C12.0896 18.8134 12.1008 19.4184 12.1008 19.5454C12.1028 19.6806 12.0727 19.8144 12.013 19.9357C11.9757 19.9488 12.1381 20.2755 12.0634 20.466C11.9887 20.6565 12.1811 21.1009 12.1923 21.198Z" fill="black"/>
<path d="M13.025 1.91408C12.9485 1.43417 13.025 0.489308 13.1259 0.338055C13.4414 -0.0914301 15.1052 -0.141848 15.46 0.362329C15.6113 0.590143 15.5982 1.12046 15.5721 1.46032C15.5459 1.80017 15.46 2.53216 15.4469 2.76744C15.4339 2.94484 13.6058 3.2212 13.2062 2.74317C13.0885 2.61432 13.025 1.91408 13.025 1.91408Z" fill="black"/>
<path d="M16.7336 19.9804C17.503 20.5406 18.0949 20.6377 18.4852 20.8394C18.8755 21.0411 18.7765 21.4314 18.1117 21.5453C17.5814 21.6461 16.7486 21.4444 16.194 21.4444C15.6394 21.4444 14.4032 21.5079 14.0746 21.2801C13.7011 21.0149 13.8617 20.5332 13.8617 20.5332C13.9625 20.2549 14.2146 19.6369 14.1381 19.1327C14.0729 18.7014 13.9472 18.2814 13.7646 17.8853C13.5779 17.4185 13.4378 16.2701 13.6133 16.2047C13.7889 16.1394 13.7403 16.2047 13.9663 16.2551C14.2828 16.3406 14.6094 16.3833 14.9373 16.3821C15.3474 16.3779 15.7565 16.3398 16.1604 16.2682C16.3471 16.2308 16.5021 16.1916 16.4386 16.5838C16.3751 16.9759 16.1865 17.7042 16.1734 18.2737C16.1495 18.7194 16.1582 19.1663 16.1996 19.6107C16.2537 19.7097 16.532 19.8348 16.7336 19.9804Z" fill="black"/>
<path d="M14.0335 3.17471C12.6461 4.37353 9.96086 4.70218 5.97599 6.24085C4.95457 6.63112 2.23201 7.8038 1.57471 9.0269C3.78189 7.75339 4.60164 9.5068 4.77717 11.3106C4.94149 13.0006 5.78553 13.8819 7.95162 13.8315C10.1831 13.7811 10.8646 15.0808 11.4827 16.6064C12.689 10.7672 14.6012 9.63192 15.8373 8.63663C18.4609 6.50415 15.2323 2.74709 14.0335 3.17471Z" fill="#88CE02"/>
<path d="M14.0335 3.17456C10.704 4.33604 7.4138 4.62547 3.5391 7.01005C2.61851 7.57024 0.676491 8.86243 0.297424 11.3217C1.71286 9.75875 4.97881 7.79059 8.97675 6.53575C10.9953 5.90459 12.4705 5.48818 14.2613 4.7954C14.1343 3.99432 14.1343 3.68061 14.0335 3.17456Z" fill="#88CE02"/>
<path d="M18.291 10.0835C18.291 10.0835 18.052 10.9033 17.5721 11.1684C17.5721 11.1684 17.2192 11.2954 16.5133 10.9033C16.415 10.8273 16.3335 10.7319 16.2737 10.623C16.214 10.5141 16.1773 10.394 16.166 10.2703C16.1661 10.1864 16.1842 10.1035 16.219 10.0272C16.2538 9.95084 16.3045 9.88283 16.3677 9.82771C16.3677 9.82771 16.5694 9.48785 16.8084 9.50093C17.0474 9.514 17.4526 9.55134 17.5777 9.43744C17.7028 9.32353 18.3097 9.67085 18.291 10.0835Z" fill="black"/>
<path d="M13.1391 2.1531C13.1116 2.50449 13.0655 2.85418 13.0009 3.20067C12.9878 3.27536 12.6088 3.31458 12.3324 3.42662C12.8609 4.94102 16.0521 4.92048 16.4685 4.18475C16.217 4.01976 15.9522 3.8761 15.6768 3.75526C15.49 3.68057 15.5012 3.69178 15.49 3.33885C15.4788 2.98593 15.4527 2.3305 15.4266 2.1531C15.4004 1.9757 13.436 1.97757 13.1391 2.1531Z" fill="black"/>
<path d="M13.2641 2.15303C13.2641 2.15303 13.2641 2.52649 13.2267 2.87195C13.2188 3.00364 13.2019 3.13466 13.1763 3.26408C13.1632 3.33878 13.6058 3.63755 13.7365 4.30979C14.3415 5.65986 15.742 4.99136 16.3228 4.34713C16.0377 4.15671 15.7335 3.9965 15.4152 3.8691C15.2285 3.79254 15.3125 3.63008 15.3013 3.27529C15.2901 2.9205 15.2378 2.40511 15.2117 2.21651C15.1856 2.02791 13.5666 1.9775 13.2641 2.15303Z" fill="#EFEFEF"/>
<path d="M13.139 2.15313C13.139 2.15313 13.126 2.38094 13.0886 2.6461C13.2529 2.81043 13.4621 3.03638 13.6301 3.17456C13.7441 3.27539 14.0223 3.26419 14.2744 3.26419C14.447 3.28524 14.622 3.2764 14.7916 3.23805C15.0378 3.09399 15.2591 2.91113 15.4471 2.69652C15.434 2.46871 15.4209 2.25397 15.4097 2.15313C15.3966 1.9776 13.4359 1.9776 13.139 2.15313Z" fill="black"/>
<path d="M14.2855 3.11299C14.1297 3.11347 13.9741 3.10035 13.8205 3.07377C13.7551 3.05768 13.6923 3.03254 13.6338 2.99908C13.546 2.93559 13.4471 2.8609 13.3556 2.78434C13.1539 2.63309 13.1427 2.54532 13.1427 2.50611C13.195 2.01955 13.1862 1.52837 13.1166 1.04399C13.1166 1.04399 13.0288 0.704139 13.5068 0.614508C13.761 0.565242 14.0179 0.531567 14.2762 0.513672C14.5353 0.522389 14.7929 0.556158 15.0455 0.614508C15.5254 0.704139 15.4376 1.04399 15.4376 1.04399C15.368 1.52837 15.3592 2.01955 15.4115 2.50611C15.4115 2.54532 15.4003 2.63309 15.1968 2.78434C15.0653 2.90881 14.9113 3.00704 14.743 3.07377C14.5919 3.09981 14.4388 3.11293 14.2855 3.11299Z" fill="black"/>
<path d="M14.2856 0.186768C13.4546 0.186768 13.2903 0.412714 13.0513 0.664803C13.0008 0.728292 13.0382 1.10736 13.126 1.91404H13.2492C13.2009 1.75501 13.1794 1.58903 13.1857 1.42294C13.1988 1.15778 13.2492 1.17085 13.2119 1.10736C13.1745 1.04387 13.0606 0.905687 13.2865 0.778709C13.5125 0.651731 13.8673 0.879545 14.2949 0.892616C14.7225 0.905688 15.0904 0.653599 15.3163 0.778709C15.5423 0.90382 15.4433 1.0308 15.3929 1.10736C15.3425 1.18392 15.406 1.15778 15.419 1.42294C15.4243 1.58898 15.4029 1.7548 15.3555 1.91404H15.4676C15.5441 1.10736 15.5946 0.754435 15.5572 0.690946C15.3331 0.412714 15.1165 0.197972 14.2856 0.186768Z" fill="black"/>
<path d="M18.291 10.1249C18.291 10.1249 18.0519 10.8942 17.5851 11.1594C17.4843 11.109 17.4973 11.0324 17.4096 10.9185C17.3834 10.8812 17.2957 10.855 17.2583 10.8177C17.221 10.7803 17.2322 10.7168 17.1687 10.6664C17.1052 10.616 17.0809 10.6533 17.0305 10.616C16.9801 10.5786 16.967 10.5021 16.9297 10.4647C16.8923 10.4274 16.8027 10.4274 16.7784 10.4013C16.7149 10.3396 16.1603 10.2257 16.1846 10.0987C16.2168 9.98193 16.2686 9.87144 16.3377 9.77196C16.3377 9.77196 16.5767 9.41904 16.8158 9.43024C17.0548 9.44145 17.2826 9.49373 17.4096 9.37983C17.5366 9.26592 18.3227 9.72155 18.291 10.1249Z" fill="black"/>
<path d="M16.644 4.55068C16.644 4.55068 17.4395 4.36395 17.981 4.87746C18.1921 5.07666 18.3377 5.3352 18.3987 5.61892C18.4598 5.90265 18.4332 6.19821 18.3227 6.46656C18.451 6.62737 18.5367 6.81789 18.572 7.02055C18.6072 7.22322 18.5909 7.43149 18.5244 7.62617C19.3554 8.33388 18.9912 9.4188 18.2462 10.1359C18.1877 9.9427 18.0709 9.77238 17.9118 9.64832C17.7526 9.52427 17.5589 9.45257 17.3573 9.44307C17.3835 9.19099 16.7019 8.98931 17.0175 8.33388C16.5376 8.21998 16.5506 7.89133 16.4759 7.48798C16.4013 7.08464 16.644 4.55068 16.644 4.55068Z" fill="black"/>
<path d="M16.3545 4.9035C16.3545 4.9035 17.2751 4.43666 17.8166 4.96512C18.3582 5.49357 18.2088 6.08551 18.0444 6.47952C18.1883 6.63683 18.2884 6.82906 18.335 7.03708C18.3815 7.2451 18.3727 7.46167 18.3096 7.66527C18.2723 7.79038 17.994 7.79038 17.7924 8.11903C18.2965 7.82773 18.6121 7.90429 18.726 8.27028C18.9015 8.83048 18.5113 9.51766 18.1658 9.89672C18.1658 9.88365 18.1527 9.87245 18.1527 9.85938C18.083 10.2191 17.912 10.5515 17.6598 10.8173C17.473 11.019 17.3199 10.9947 17.0996 10.9443C16.8475 10.8808 16.7597 10.7576 16.4068 10.5708C16.2051 10.4569 16.3172 10.3187 16.3172 10.1974C16.3284 10.1547 16.3503 10.1155 16.3807 10.0835C16.4414 9.98357 16.5191 9.89509 16.6103 9.82203C16.6571 9.75824 16.7177 9.70581 16.7875 9.66863C16.8573 9.63145 16.9346 9.61049 17.0137 9.60729C17.2063 9.63097 17.4016 9.59582 17.5739 9.50645C17.5739 9.0639 17.0697 9.05269 17.2471 8.29456C17.2602 8.25721 17.3218 8.19372 17.5235 8.16945C17.221 8.10596 17.0828 8.09289 16.868 7.89122C16.7084 7.75046 16.6017 7.5594 16.5655 7.34969C16.4815 6.95942 16.3545 4.9035 16.3545 4.9035Z" fill="#EFEFEF"/>
<path d="M13.6936 4.10809C13.3888 3.71462 12.964 3.43139 12.4836 3.3014C12.2688 3.23791 12.1306 3.41531 11.9234 3.54042C11.8599 3.50307 11.5817 3.3761 11.4304 3.46573C11.3014 3.5543 11.1667 3.63415 11.0271 3.70475C10.8786 3.66378 10.7206 3.67431 10.5789 3.73462C10.3111 3.81936 10.08 3.99251 9.92347 4.22573C9.77222 4.76725 12.5956 4.36391 12.5956 4.36391L13.6936 4.10809Z" fill="black"/>
<path d="M13.7198 4.10824C13.3146 3.97006 13.378 3.50323 12.4836 3.42667C12.2969 3.41546 12.1923 3.55364 12.0672 3.64141C12.1386 3.71832 12.1944 3.80837 12.2315 3.90657C12.0949 3.74885 11.9151 3.63459 11.7143 3.57792C11.5275 3.54057 11.3987 3.68062 11.197 3.78146C11.2432 3.83662 11.285 3.89531 11.3221 3.95699C11.2468 3.89683 11.1562 3.85899 11.0604 3.84777C10.9647 3.83655 10.8678 3.85239 10.7806 3.8935C10.4893 3.98668 10.2367 4.17301 10.0617 4.42382C9.91042 4.96534 12.6087 4.36033 12.6087 4.36033L13.7198 4.10824Z" fill="#88CE02"/>
<path d="M16.0894 4.31002C16.0894 4.31002 16.0894 4.17184 16.0763 4.04486C16.0763 4.02058 15.9754 3.95709 15.9754 3.93282L15.9512 3.90667C16.0579 3.84499 16.1844 3.82693 16.3041 3.85626C16.4187 3.90951 16.5088 4.00428 16.5562 4.12142C16.8456 4.02058 16.8718 4.13449 17.0099 4.28574C17.3125 4.22225 17.3517 4.33616 17.5403 4.61252C17.3167 4.59204 17.0914 4.60526 16.8718 4.65174C16.4423 4.71336 16.0894 4.29508 16.0894 4.31002Z" fill="black"/>
<path d="M16.039 4.24631C16.039 4.24631 16.1156 4.18469 16.0894 4.17162C16.2276 4.09506 16.4181 4.0073 16.5058 4.24631C16.7953 4.14548 16.8345 4.28553 16.9727 4.43305C17.3256 4.26872 17.3461 4.47039 17.376 4.55816C17.2074 4.56237 17.0391 4.57546 16.8718 4.59737C16.4423 4.66833 16.0259 4.23511 16.039 4.24631Z" fill="#88CE02"/>
<path d="M11.7554 3.93262C12.1815 4.07771 12.6291 4.14968 13.0793 4.14549C13.6843 4.09507 14.7188 4.04466 15.2734 4.37331C15.6275 4.25642 16.0061 4.23452 16.3714 4.30982C16.8998 4.448 17.8652 5.35739 17.5814 6.31532C17.4829 6.42737 17.3526 6.50682 17.2079 6.54314C17.2629 6.80502 17.2362 7.07747 17.1314 7.32368C16.7814 7.89993 16.5817 8.55485 16.5506 9.22835C16.5394 9.3796 16.5133 9.69518 16.489 9.84644C15.5049 9.80909 13.9905 9.44309 12.5023 9.47297C12.5154 9.30865 12.5284 9.20781 12.5415 9.04349H12.5788C12.5023 8.62707 12.478 8.41233 12.3921 8.09675C11.8246 7.7717 11.3412 7.31829 10.9804 6.77282C10.5659 6.10058 11.7554 3.93262 11.7554 3.93262Z" fill="black"/>
<path d="M16.6197 10.7429C16.6197 10.7429 17.4021 13.5439 16.4815 14.7147C16.5512 15.0985 16.4851 15.4946 16.2948 15.8351C16.2443 16.0872 16.1808 16.315 16.1435 16.5671C15.9792 17.6128 15.7028 18.061 15.6263 19.7416L14.8793 19.7285C14.8793 19.7285 14.7916 18.5185 14.5264 17.8761C14.3751 17.5026 13.7795 17.0171 13.8075 16.526C13.8317 16.1526 13.9083 15.8314 14.5544 15.3272C14.6048 14.5971 13.8747 13.9024 13.9942 11.178L16.6197 10.7429Z" fill="black"/>
<path d="M16.392 10.6289C16.5936 11.9155 17.0605 13.8202 16.2164 14.752C16.2664 14.9886 16.2702 15.2328 16.2276 15.4709C16.1965 15.639 16.1502 15.804 16.0894 15.9639C15.9808 16.291 15.9087 16.6292 15.8747 16.9722C15.7122 18.0198 15.7122 18.0702 15.6357 19.7471L14.8888 19.734C14.8888 19.734 14.801 18.524 14.5358 17.8797C14.3846 17.5063 14.069 17.2 14.0429 16.7071C14.0186 16.3336 14.2837 15.5717 14.913 15.5979C14.8757 14.0723 14.1661 14.3748 13.9794 11.1966L16.392 10.6289Z" fill="#EFEFEF"/>
<path d="M11.7553 3.93262C11.9447 3.98908 12.1393 4.02661 12.3361 4.04466C12.6404 4.05936 12.9453 4.05562 13.2492 4.03345C13.8542 3.98303 14.7113 3.91955 15.279 4.24633C15.4916 4.1842 15.7133 4.15894 15.9344 4.17163C16.0987 4.22205 16.2591 4.28446 16.4143 4.35837C16.9745 4.49842 17.4992 5.41901 17.2583 6.24997C17.2341 6.31346 17.0567 6.24997 16.855 6.31346C16.9143 6.65578 16.866 7.00806 16.7168 7.32181C16.3709 7.94821 16.2169 8.66259 16.2743 9.37587C14.9541 9.30491 14.3696 9.21528 13.0512 9.14992C12.9531 8.7649 12.885 8.37283 12.8477 7.97724C13.007 7.9022 13.1488 7.79471 13.2641 7.66166C12.8907 7.72515 12.7357 7.69901 12.5172 7.57203C12.2004 7.35196 11.9195 7.08426 11.6844 6.77842C11.6601 6.75228 11.5219 7.16869 11.2063 7.18176C11.0924 7.01744 11.5798 6.55061 11.4827 6.37508C11.1578 5.73459 11.7553 3.93262 11.7553 3.93262Z" fill="#EFEFEF"/>
<path d="M16.4927 9.58126C16.4927 9.58126 16.5188 10.035 16.5188 10.1415C16.5188 10.2479 16.6197 10.6456 16.6327 10.823C16.4927 11.062 15.8858 11.6054 14.7916 11.8071C13.6973 12.0088 12.2688 10.3319 12.2688 10.3319C12.3061 10.1676 12.4331 9.68769 12.5209 9.4356C12.5394 9.39989 12.552 9.36143 12.5582 9.3217C12.6721 9.16484 16.4927 9.58126 16.4927 9.58126Z" fill="black"/>
<path d="M16.2163 9.62061C16.22 9.87193 16.2494 10.1222 16.3041 10.3675C16.378 10.6455 16.4329 10.9281 16.4684 11.2134C16.4684 11.9436 15.5105 11.8185 14.7019 11.8427C13.6226 12.0668 12.689 10.3638 12.689 10.3638C12.7501 10.0608 12.8306 9.76208 12.9298 9.46936C12.9411 9.31811 12.9672 9.12764 12.9803 9.03988C14.0677 9.03497 15.1546 9.08545 16.2369 9.19113C16.2571 9.3345 16.2488 9.48044 16.2126 9.62061H16.2163Z" fill="#EFEFEF"/>
<path d="M15.0045 11.247C15.0045 11.247 14.336 9.75315 12.3324 10.1994C11.8525 11.5495 11.212 13.1013 11.6247 14.7781C11.2083 15.3383 10.7302 15.6614 10.7302 16.7071C10.7302 17.7528 10.7806 17.9302 10.7806 17.9302L12.2558 18.0067C12.5484 17.6179 12.7743 17.1831 12.9243 16.7201C12.9972 16.419 13.0187 16.1078 12.9878 15.7996C13.1483 15.6406 13.2504 15.4319 13.2773 15.2076C13.781 14.8989 14.1774 14.4425 14.4126 13.9005C14.8029 13.0714 14.702 12.3562 15.0045 11.247Z" fill="black"/>
<path d="M15.0045 11.2471C14.9671 11.1089 14.463 9.75319 12.5956 10.1491C11.4995 13.0752 11.9029 14.2852 12.0672 14.8174C11.3203 15.7641 10.9823 15.9658 11.1335 17.8817H12.1176C12.5714 17.1627 12.6778 16.8976 12.6965 15.9527C12.6965 15.9154 12.5583 16.0274 12.4575 16.1544C12.534 15.7641 12.7469 15.6875 12.9112 15.4485C13.006 15.3165 13.0552 15.1572 13.0513 14.9948C13.9326 14.401 14.2613 13.6578 14.4499 12.8884C14.6011 12.3562 14.7785 11.4861 15.0045 11.2471Z" fill="#EFEFEF"/>
<path d="M11.8898 9.21533C12.1084 9.22675 12.3248 9.26501 12.534 9.32924C12.701 9.37065 12.8456 9.47503 12.9374 9.62054C13.0513 9.74565 13.3276 9.93425 13.2772 10.1247C13.253 10.2256 13.1895 10.2498 13.1017 10.3395C13.0625 10.3768 12.7861 10.6793 12.7282 10.7129C12.6704 10.7465 12.6405 10.7764 12.6013 10.8007L12.4145 10.9277C12.3092 10.9937 12.1856 11.0245 12.0616 11.0154C11.8682 11.0023 11.6854 10.9225 11.5444 10.7895C11.5444 10.7895 11.5201 10.6887 11.5705 10.6382C11.44 10.53 11.325 10.4043 11.2288 10.2648C11.1557 10.1146 11.1437 9.9419 11.1952 9.783C11.2213 9.67096 11.7143 9.35538 11.8898 9.21533Z" fill="black"/>
<path d="M12.2053 21.4872L12.168 21.8028C12.168 21.8028 12.0541 21.941 11.2101 21.9279C10.366 21.9149 10.1251 21.6516 10.0486 21.5115L9.99817 21.1847C9.99817 21.1847 10.1625 20.9438 10.1998 20.9438C10.4781 20.97 11.4229 21.3491 12.0802 21.4499C12.1419 21.4499 12.1549 21.4742 12.2053 21.4872Z" fill="black"/>
<path d="M14.0334 20.8431C14.0334 20.9832 14.0222 20.9832 14.0222 21.1214C14.1735 21.2353 14.5507 21.2988 15.2696 21.2857C16.3172 21.2595 17.2882 21.6013 18.4739 21.3996L18.4851 21.1718L18.3731 21.1587L14.1828 20.8188L14.0334 20.8431Z" fill="black"/>
<path d="M14.9541 21.2875H15.2697C15.9512 21.2614 16.5936 21.4126 17.2883 21.4519C17.6617 21.4388 18.108 21.351 18.0707 21.0784L14.4873 20.7759C14.2744 21.0205 14.4368 21.2222 14.9541 21.2875Z" fill="black"/>
<path d="M10.8441 15.9751C10.9561 16.0517 11.7255 16.5054 12.9747 16.4419C12.9486 16.6828 12.9616 17.1496 12.4145 17.9694C12.1381 18.3727 11.8973 19.0786 11.8543 19.973C11.8674 20.1747 11.9813 20.3465 11.83 20.6173C11.9351 20.8544 12.0529 21.0857 12.183 21.31C12.2838 21.5117 12.3342 21.7395 11.6657 21.7526C10.9972 21.7657 9.88802 21.6891 10.0393 21.1588C10.114 20.8824 10.3287 20.5986 10.353 20.4791C10.3773 20.3596 10.3791 20.0235 10.5939 19.7975C10.7806 19.1664 10.719 18.5613 10.6816 17.9937C10.6443 17.426 10.592 16.455 10.8441 15.9751Z" fill="black"/>
<path d="M12.0167 5.69739C12.9112 4.50044 12.1549 3.54063 10.7096 3.83007C10.1288 3.94211 9.54998 4.34732 9.51076 5.07744C9.32403 5.10358 8.89455 5.12786 8.6798 5.91027C8.51548 6.51528 8.42771 6.62919 8.13641 6.93169C7.94968 7.14644 8.14948 7.58712 8.28766 7.9027C8.7545 8.98762 10.1923 9.08845 11.1633 9.90821C11.5029 9.78691 11.782 9.53854 11.942 9.21543C11.1223 8.24442 11.2997 7.86722 10.971 7.36305C11.3083 7.24509 11.5955 7.01599 11.7856 6.71334C11.9756 6.41069 12.0571 6.05246 12.0167 5.69739Z" fill="black"/>
<path d="M11.8393 5.62243C11.8898 5.54587 11.9775 5.38154 12.0261 5.31992C12.0391 5.30685 12.1773 5.54586 12.1904 5.53279C12.5303 4.9726 12.618 4.17151 12.2277 4.09495C12.0941 4.07388 11.9628 4.04011 11.8356 3.99412C11.549 3.90601 11.243 3.90212 10.9542 3.98291C10.394 4.08375 9.84317 4.48709 9.84317 5.06596C9.84317 5.10518 10.2353 5.21722 10.3474 5.68405C10.1606 5.42076 9.83197 5.12385 9.43983 5.38154C9.04769 5.63923 9.23816 6.25171 8.6929 6.8754C8.50617 7.09014 8.52858 7.34223 8.73025 7.84641C9.0589 8.64189 10.6106 9.06951 11.4547 9.82577C11.6398 9.72286 11.7925 9.57021 11.8954 9.38509C11.4674 8.9434 11.135 8.41837 10.9188 7.84267C10.7344 7.40762 10.4333 7.0321 10.0486 6.75776C10.226 6.82156 10.3953 6.90618 10.5528 7.00985C10.6169 7.04799 10.6887 7.07131 10.7631 7.07809C10.8374 7.08488 10.9123 7.07496 10.9822 7.04906C11.5238 6.85673 11.8151 6.10046 11.8393 5.62243Z" fill="#EFEFEF"/>
<path d="M17.3256 5.82426C17.2883 6.3023 16.9353 6.06328 16.7449 5.97551C16.3702 5.79887 15.9621 5.70403 15.5479 5.69728C15.0452 5.69229 14.5437 5.74746 14.0541 5.86161C13.3725 6.04834 13.1708 6.04834 12.8683 5.88588C12.5809 5.71515 12.3034 5.52811 12.0374 5.32568C12.039 5.43243 12.0788 5.53507 12.1494 5.61512C12.4306 5.90608 12.7826 6.11905 13.1708 6.2332C13.3823 6.28488 13.6042 6.27385 13.8094 6.20146C14.9298 5.9251 16.1175 5.87468 17.1127 6.47969C17.1632 6.50397 17.3406 6.42927 17.4152 6.31537C17.5142 6.15104 17.3256 5.82426 17.3256 5.82426Z" fill="black"/>
<path d="M11.5873 10.6289C11.7179 10.6893 11.8429 10.7611 11.9607 10.8436C11.902 10.8445 11.8446 10.8268 11.7964 10.7932C11.7255 10.7431 11.6581 10.6882 11.5947 10.6289H11.5873Z" fill="#001423"/>
<path d="M15.2323 0.62759C15.1949 0.513683 14.9167 0.312012 14.2744 0.312012C13.5797 0.312012 13.378 0.526754 13.365 0.640661C13.365 0.678008 13.3145 1.08135 13.3033 1.24567C13.3033 1.24567 13.3033 1.44735 13.3145 1.74985C13.3276 1.95152 13.378 2.06543 13.4042 2.33059C13.4242 2.57449 13.5065 2.80916 13.6432 3.01216C13.6999 3.05193 13.7631 3.08162 13.8299 3.09993C14.1385 3.15712 14.455 3.15712 14.7636 3.09993C14.8533 3.0498 14.9306 2.98014 14.9898 2.8961C15.0489 2.81206 15.0884 2.71579 15.1053 2.61442C15.1557 2.35113 15.2061 2.16066 15.2192 1.99821C15.2323 1.83575 15.2566 1.46789 15.2696 1.36705C15.2917 1.12003 15.2791 0.871135 15.2323 0.62759Z" fill="#EFEFEF"/>
<path d="M13.9084 16.2161C13.9084 16.2161 14.5769 16.5055 16.2294 16.2534C16.2294 16.2534 15.7626 18.5988 15.9755 19.7715C15.9755 19.7715 16.1902 20.074 17.7793 20.6547C17.7793 20.6547 18.4852 20.8321 18.4609 21.185C18.4609 21.185 18.4852 21.2597 17.6281 21.2354C16.771 21.2112 15.9643 21.058 15.3873 21.058C14.8103 21.058 14.2146 21.0842 14.1138 20.9199C14.0129 20.7555 14.138 20.3783 14.3005 20.1505C14.4629 19.9227 14.4256 19.7341 14.4144 19.3046C14.3864 18.1824 13.5293 17.0227 13.9084 16.2161Z" fill="black"/>
<path d="M13.7683 16.4325C13.6805 16.5576 13.7814 17.0375 13.9083 17.5043C14.0353 17.9712 14.3117 18.2513 14.3752 19.0169C14.4387 19.7825 14.4499 19.874 14.2351 20.324C14.0204 20.774 13.9588 21.168 14.702 21.1811C15.3385 21.1647 15.9754 21.1984 16.6066 21.2819C17.3536 21.3959 17.6281 21.4332 18.0445 21.3697C18.4609 21.3062 18.5486 21.168 18.3731 21.0429C18.1976 20.9178 17.4637 20.7778 17.1482 20.5257C16.8326 20.2736 15.9885 19.9207 15.9755 19.8198C15.9296 19.16 15.934 18.4977 15.9885 17.8386C16.052 17.4353 16.1398 16.8545 16.1753 16.7033C16.2108 16.552 16.3265 16.4008 16.1118 16.4512C15.5761 16.554 15.0305 16.5966 14.4853 16.5782C13.871 16.5315 13.8094 16.3914 13.7683 16.4325Z" fill="#88CE02"/>
<path opacity="0.3" d="M14.1978 20.3279C14.4402 20.4364 14.7016 20.496 14.9671 20.5034C14.9188 20.7264 14.9363 20.9587 15.0175 21.1719C15.1557 21.424 14.0092 21.2727 14.0092 21.2727L13.9587 20.3783L14.1978 20.3279Z" fill="black"/>
<path opacity="0.3" d="M17.544 21.4107C17.5963 21.3991 17.6447 21.3744 17.6846 21.3388C17.7246 21.3033 17.7548 21.2581 17.7724 21.2076C17.79 21.157 17.7944 21.1029 17.7851 21.0502C17.7759 20.9975 17.7533 20.948 17.7196 20.9065C17.544 20.6918 17.3928 20.6544 17.6187 20.6414C17.8447 20.6283 18.6794 21.1343 18.6794 21.1343L18.2499 21.5246L17.544 21.4107Z" fill="black"/>
<path opacity="0.3" d="M13.731 16.9218C14.0955 17.0215 14.4742 17.06 14.8513 17.0357C15.2933 17.0299 15.7326 16.9672 16.1585 16.849C16.5319 16.7239 16.3732 16.989 16.3732 16.989L16.1715 17.1758C15.7646 17.3092 15.3372 17.3693 14.9092 17.3531C13.9886 17.3401 13.7123 17.2392 13.7123 17.2392L13.731 16.9218Z" fill="black"/>
<path opacity="0.3" d="M13.7571 17.553C14.1181 17.6511 14.4929 17.689 14.8663 17.665C15.2397 17.6538 15.7495 17.6538 16.1155 17.5138C16.2668 17.4634 16.1771 17.6781 16.1771 17.6781L16.1155 17.792C15.7067 17.916 15.2802 17.9715 14.8532 17.9563C13.9326 17.9433 13.7683 17.8667 13.7683 17.8667L13.7571 17.553Z" fill="black"/>
<path d="M12.9243 8.71118C12.9243 8.80081 13.9084 9.29192 14.4499 9.39276C14.9914 9.49359 16.1305 9.39275 16.3042 9.35541L16.278 9.53094C16.278 9.53094 14.9298 9.73261 13.8953 9.45624C12.8608 9.17988 12.9747 9.11452 12.9747 9.11452L12.9243 8.71118Z" fill="black"/>
<path d="M10.8217 19.4687C11.1533 19.6036 11.5138 19.6518 11.8692 19.6088C11.9196 19.5957 11.8692 18.7386 12.0074 18.3464C12.2091 17.8049 12.5377 17.3624 12.689 16.4044C12.1974 16.3535 11.7116 16.2566 11.2381 16.115C10.831 17.3512 10.9692 18.4099 10.8217 19.4687Z" fill="#EFEFEF"/>
<path d="M11.6639 20.2643C11.7516 20.2886 11.8151 20.3894 11.8394 20.3278C11.8898 20.2139 11.7516 19.9991 11.7386 19.8479V19.8348C11.6247 19.734 10.8553 19.7209 10.9057 19.7713C10.818 19.9357 10.6798 19.9114 10.6294 20.2382C10.6032 20.4025 10.8049 20.2643 11.0028 20.2512C10.6611 20.4791 10.2709 20.7685 10.2074 21.0206C10.1327 21.3735 10.2578 21.4743 10.6369 21.6629C10.9727 21.732 11.3159 21.7578 11.6583 21.7395C11.9981 21.676 12.0616 21.5117 11.9608 21.2857C11.8225 20.9579 11.7228 20.6152 11.6639 20.2643Z" fill="#EFEFEF"/>
<path d="M11.802 3.88232C12.2184 4.12134 12.7973 4.05785 13.012 4.04478C13.0624 4.04478 13.5722 3.95702 13.5928 3.97009C13.6133 3.98316 13.6432 4.02051 13.6432 4.02051C13.4473 4.10218 13.2373 4.14469 13.0251 4.14562C12.6377 4.18707 12.246 4.14439 11.8767 4.02051C11.5686 3.88232 11.802 3.88232 11.802 3.88232Z" fill="black"/>
<path d="M16.0894 4.12119C16.1659 4.17161 16.6496 4.36021 16.8718 4.58802C17.094 4.81583 16.9595 4.77475 16.9222 4.7262C16.741 4.57322 16.5423 4.44222 16.3302 4.33593C16.2051 4.2899 16.0893 4.22158 15.9885 4.13426C15.9885 4.10812 16.0894 4.12119 16.0894 4.12119Z" fill="black"/>
<path d="M11.7386 9.35534C11.9157 9.33331 12.0955 9.35014 12.2654 9.40464C12.4354 9.45914 12.5914 9.55 12.7227 9.67092C12.8478 9.79603 13.0513 9.93421 13.0252 10.0612C12.9923 10.1388 12.9455 10.2097 12.887 10.2703C12.8285 10.3409 12.7662 10.4083 12.7003 10.472C12.6498 10.5093 12.4743 10.6475 12.437 10.6737C12.3996 10.6998 12.3473 10.7614 12.31 10.7745C12.2456 10.7975 12.1766 10.8049 12.1088 10.7962C12.041 10.7874 11.9762 10.7627 11.9197 10.7241C11.7927 10.6606 11.944 10.6475 11.8058 10.5467C11.466 10.3077 11.2755 10.1434 11.4155 9.67652C11.423 9.59436 11.5687 9.49352 11.7386 9.35534Z" fill="#EFEFEF"/>
<path opacity="0.4" d="M8.52294 6.46662C7.38761 6.92038 4.49886 8.35822 3.68097 8.80077C4.36068 9.22839 4.67625 10.2629 4.77709 11.3105C4.79016 11.4113 4.80323 11.4972 4.81444 11.5999C4.82237 11.6631 4.83549 11.7256 4.85365 11.7866C4.85173 11.8042 4.85567 11.8219 4.86485 11.837C5.61178 9.80726 8.27085 7.66357 8.37169 7.49925C8.42211 7.42269 8.3082 7.09591 8.4856 6.78033C8.71154 6.37885 9.1541 6.20146 8.52294 6.46662Z" fill="black"/>
<path opacity="0.4" d="M11.2212 15.9882C11.802 14.8286 11.8151 13.7194 11.802 12.4197C11.802 11.8763 12.1923 11.1126 11.9887 11.3217C11.2325 12.1676 9.32778 13.7493 7.95343 13.8445C9.88798 13.781 10.6349 14.752 11.2212 15.9882Z" fill="black"/>
<path d="M2.56995 9.87247C3.28887 9.35522 7.00858 7.37399 7.90489 7.09576C8.80121 6.81752 8.52298 6.4646 8.52298 6.4646C8.52298 6.4646 4.89103 8.02942 2.7212 9.37949" fill="black"/>
<path opacity="0.4" d="M13.1633 6.22759C12.8739 6.11368 12.6461 6.45353 12.7226 6.78779C12.7992 7.12204 13.4789 7.46936 13.4359 8.67378C13.4098 9.65786 13.1969 10.0612 13.1969 10.0612L12.717 9.45619C12.717 9.45619 12.6405 8.09305 12.478 7.89138C12.3155 7.6897 11.7964 7.33118 11.5947 7.13511C11.3931 6.93904 11.8207 6.69442 11.7964 6.3415C11.7721 5.98857 12.0112 5.32007 12.0112 5.32007L13.1633 6.22759Z" fill="black"/>
<path opacity="0.4" d="M14.9167 11.5999C14.8924 12.5447 15.1034 13.9452 15.1949 14.6137C15.2864 15.2822 15.3966 15.3326 15.1949 15.6351C14.9932 15.9376 14.7281 16.4045 14.7281 16.4045L13.8579 16.3298C13.8579 16.3298 14.5507 15.4465 14.588 15.2822C14.6254 15.1179 14.2351 13.8705 14.2351 13.8705L14.9167 11.5999Z" fill="black"/>
<path opacity="0.4" d="M13.2491 2.77106C13.3093 2.93406 13.4068 3.08065 13.534 3.19904C13.6611 3.31742 13.8143 3.40429 13.9811 3.45263C14.1828 3.5292 14.9764 3.63003 15.2883 3.2659C15.4264 3.10345 15.3387 2.66089 15.3387 2.66089L14.6198 3.24163L13.6488 3.06423L13.5348 2.7748L13.2491 2.77106Z" fill="black"/>
<path d="M13.3145 3.64136C13.6432 3.8561 14.4629 4.05777 14.6907 4.09512C14.9185 4.13246 15.2827 3.8561 15.4582 3.78141C15.6337 3.70671 15.9754 3.64136 16.3545 3.98308C16.3919 4.02042 16.2667 4.18475 16.2667 4.18475C16.2032 4.16762 16.1408 4.14641 16.08 4.12126C15.9773 4.06145 15.8586 4.03472 15.7402 4.0447C15.109 4.12126 15.0082 4.336 14.4536 4.20902C13.899 4.08205 13.7608 3.98308 13.2174 4.00735" fill="#88CE02"/>
<path d="M13.3145 3.64136C13.6432 3.8561 14.4629 4.05777 14.6907 4.09512C14.9185 4.13246 15.2827 3.8561 15.4582 3.78141C15.6337 3.70671 15.9754 3.64136 16.3545 3.98308C16.3919 4.02042 16.2667 4.18475 16.2667 4.18475C16.2032 4.16762 16.1408 4.14641 16.08 4.12126C15.9773 4.06145 15.8586 4.03472 15.7402 4.0447C15.109 4.12126 15.0082 4.336 14.4536 4.20902C13.899 4.08205 13.7608 3.98308 13.2174 4.00735" stroke="black" stroke-width="0.53" stroke-linejoin="round"/>
<path d="M13.2024 3.68066C13.6754 3.85195 14.1595 3.99046 14.6515 4.09521C14.8793 4.14563 15.2453 3.91968 15.4208 3.80578C15.7364 3.6041 16.1397 3.76843 16.3302 3.98317C16.4553 4.12135 16.5057 4.20912 16.5057 4.24646C16.5057 4.28381 16.3545 4.24646 16.3545 4.24646C16.2634 4.22049 16.1747 4.18675 16.0893 4.14563C15.9859 4.07298 15.8627 4.03387 15.7364 4.03359C15.1052 4.10828 14.9895 4.32302 14.4293 4.19605C13.8691 4.06907 13.7496 3.95703 13.1688 3.99437" fill="#88CE02"/>
<path d="M11.2474 15.4597C11.2212 15.4335 11.2716 15.4092 11.2474 15.4092C11.1444 15.3984 11.045 15.3656 10.9558 15.3131C10.8665 15.2606 10.7896 15.1896 10.7301 15.1049C10.1867 14.3243 9.39312 13.7977 7.95528 13.8444C5.79852 13.8948 4.94141 13.0116 4.78083 11.3217C4.69306 10.4011 4.44097 9.50662 3.92372 9.00244L3.62122 9.18917C4.20009 9.69335 4.39055 10.5131 4.51566 11.6354C4.71734 13.3253 6.08048 14.1077 7.66958 14.132C9.32029 14.1581 9.91037 14.5054 10.5322 15.3308C10.6772 15.5328 10.8934 15.6723 11.1372 15.7211L11.2474 15.4597Z" fill="black"/>
<path opacity="0.4" d="M17.0996 7.34985C17.1406 7.62132 17.2586 7.87535 17.4395 8.08184C17.5273 8.16961 17.5403 8.19388 17.4638 8.19388C17.3872 8.19388 16.8345 8.16961 16.8345 8.16961L16.6832 7.90445L17.0996 7.34985Z" fill="black"/>
</g>
</svg>
